Plotly
…
data(rest_inspec)
# Clean the data. 
rest_insp_base = 
  rest_inspec %>% 
  filter(cuisine_description == "Asian", 
         !is.na(grade), 
         critical_flag == "Critical", 
         ) %>% 
  select(dba, inspection_date, phone, score, street, grade, violation_code) %>% 
  arrange(dba)

rest_insp_base 

## # A tibble: 1,593 × 7
##    dba     inspection_date     phone      score street    grade violation_code
##    <chr>   <dttm>              <chr>      <int> <chr>     <chr> <chr>         
##  1 .TAO    2016-01-27 00:00:00 2128882724    13 9TH AVE   A     06F           
##  2 .TAO    2014-01-14 00:00:00 2128882724    11 9TH AVE   A     02G           
##  3 .TAO    2014-10-07 00:00:00 2128882724    12 9TH AVE   A     05D           
##  4 .TAO    2016-10-05 00:00:00 2128882724    12 9TH AVE   A     04N           
##  5 .TAO    2015-04-28 00:00:00 2128882724    12 9TH AVE   A     04C           
##  6 .TAO    2016-01-27 00:00:00 2128882724    13 9TH AVE   A     04C           
##  7 .TAO    2015-04-28 00:00:00 2128882724    12 9TH AVE   A     06C           
##  8 100 FUN 2016-02-19 00:00:00 7184368883    10 60 STREET A     04H           
##  9 100 FUN 2015-01-08 00:00:00 7184368883    11 60 STREET A     06A           
## 10 100 FUN 2014-07-01 00:00:00 7184368883    17 60 STREET B     04M           
## # … with 1,583 more rows
